ident_model Identity of a Model Test
…
##            SV Df    Sum_Sq   Mean_Sq F_Regazzi F_value  p.value Result
## 1 Parameter_c  9 6633.2228  737.0248                                  
## 2 Parameter_r  2 6580.0642 3290.0321                                  
## 3   Reduction  7   53.1587    7.5941     24.92    2.37 3.22e-10      *
## 4   Residuals 27    8.2272    0.3047

# And this gives us additional information on the test:
ident_model(exfm13, "species", dbh ~ N + N2, output = "full")

## $dummies_table
## # A tibble: 36 x 9
##       D1    D2    D3   D1N   D2N   D3N  D1N2  D2N2  D3N2
##    <dbl> <dbl> <dbl> <dbl> <dbl> <dbl> <dbl> <dbl> <dbl>
##  1     1     0     0    20     0     0   400     0     0
##  2     1     0     0    20     0     0   400     0     0
##  3     1     0     0    20     0     0   400     0     0
##  4     1     0     0    40     0     0  1600     0     0
##  5     1     0     0    40     0     0  1600     0     0
##  6     1     0     0    40     0     0  1600     0     0
##  7     1     0     0    60     0     0  3600     0     0
##  8     1     0     0    60     0     0  3600     0     0
##  9     1     0     0    60     0     0  3600     0     0
## 10     1     0     0    80     0     0  6400     0     0
## # ... with 26 more rows
## 
## $Reduced_Model
## 
## Call:
## stats::lm(formula = MODELO_REDUZIDO, data = DF)
## 
## Residuals:
##     Min      1Q  Median      3Q     Max 
…
